{
  "project_info": {
    "project_number": "761446189453",
    "project_id": "taxzilla-314308",
    "storage_bucket": "taxzilla-314308.appspot.com"
  },
  "client": [
    {
      "client_info": {
        "mobilesdk_app_id": "1:761446189453:android:31aa061c3d159e63fd95c4",
        "android_client_info": {
          "package_name": "com.dev.taxzilla"
        }
      },
      "oauth_client": [],
      "api_key": [
        {
          "current_key": "AIzaSyDwTR50K2suuHqtuHqgH3hKoAJg5ckeVkc"
        }
      ],
      "services": {
        "appinvite_service": {
          "other_platform_oauth_client": [
            {
              "client_id": "761446189453-gqorhk38ra5e1lr3ojtch5rc8djfmml9.apps.googleusercontent.com",
              "client_type": 3
            },
            {
              "client_id": "761446189453-m3n6g2bh5ps36p8rrtdqfel37s70mjus.apps.googleusercontent.com",
              "client_type": 2,
              "ios_info": {
                "bundle_id": "com.dev.taxzilla"
              }
            }
          ]
        }
      }
    }
  ],
  "configuration_version": "1"
}